Encryptr: Easily Encrypt and Decrypt Sensitive Data with R
…
Encryptr on CRAN / Github

install.packages("encryptr") # CRAN
remotes::install_github("SurgicalInformatics/encryptr")

https://github.com/surgicalinformatics 

library(encryptr)
library(dplyr) # Used in presentation examples

# Encryptr comes with an example data set of GPs (Family Physicians)
gp

## # A tibble: 1,212 x 12
##   organisation_code name                    address1       address2   address3 city    county  postcode opendate   closedate  telephone  practice_type
##   <chr>             <chr>                   <chr>          <chr>      <chr>    <chr>   <chr>   <chr>    <date>     <date>     <chr>              <dbl>
## 1 S10002            MUIRHEAD MEDICAL CENTRE LIFF ROAD      MUIRHEAD   <NA>     DUNDEE  ANGUS   DD2 5NH  1995-05-01 NA         01382 580             4
## 2 S10017            THE BLUE PRACTICE       CRIEFF MEDICA KING STRE <NA>     CRIEFF  PERTHS PH7 3SA  1996-04-06 NA         01764 652             4
## 3 S10036            ABERFELDY AND KINLOCH  TAYBRIDGE ROAD <NA>       <NA>     ABERFE PERTHS PH15 2BL 2008-04-01 NA         01887 820             4
## 4 S10060            ABERFELDY HEALTH CENTRE TAYBRIDGE ROAD <NA>       <NA>     ABERFE PERTHS PH15 2BH 1975-04-01 2008-03-31 01887 820             4
## 5 S10106            GROVE HEALTH CENTRE     129 DUNDEE RO BROUGHTY  <NA>     DUNDEE  ANGUS   DD5 1DU  1996-07-08 NA         01382 778             4
## 6 S10125            ALYTH HEALTH CENTRE     NEW ALYTH ROAD ALYTH      <NA>     BLAIRG PERTHS PH11 8EQ 1979-10-01 NA         01828 632             4
## #  with 1,206 more rows
…
gp_encrypt = gp %>% 
  encrypt(name)
gp_encrypt %>% 
  select(organisation_code, name, address1)

## # A tibble: 1,212 x 3
##   organisation_code name                                                                                                             address1         
##   <chr>             <chr>                                                                                                            <chr>            
## 1 S10002            71d071f79fdd3e794c623868eb7aa9ced57751e920ab5c8adcfe4c31164306a744c8379c9abc5932c7fd889d95975698848daafbe9f1ba0 LIFF ROAD        
## 2 S10017            575d22a1a0a8899ec862daa99d2c49d1ff679337e9f70d0a89213681a948894373ec4b7ce0740f8f85076605040f5fbcddf97f7204f69e5 CRIEFF MEDICAL C
## 3 S10036            3501963764bdcd8179ee32d3d5c79a18a0d16ee6bb6ef49dfa36296a41e2ff6e946db531321f118fd26bfacb6a85c3b15403da62da1599c TAYBRIDGE ROAD   
## 4 S10060            9e0e09a67e8e5e0c82184ca0b8e22524e7c96493c4c399651a5d2f65c599ad18e8c4aff33a1c7ce4869d47ede1483da622c4d5fae92a57e TAYBRIDGE ROAD   
## 5 S10106            13695fafc81089dd1f7aae30626ac2d1b0986754d3bdb927d14fb849cd84547304851d98f09192af31a5cd4776ac13a9a198c82c4ba3ac8 129 DUNDEE ROAD  
## 6 S10125            9aafa39309e277a37273cdbfc96f337bc3858a007e30bb1bbcb346fbbf66a210ffa5f2065ca1ebaca20de782ed3057406d9f61aa0994bc3 NEW ALYTH ROAD   
## #  with 1,206 more rows
…
